
# If you add advisortypes, and use those tags, do not change them without changing everywhere they are used.
#
# Additional arguments: allow_only_male/allow_only_female
# Contains skill_scaled_modifier for which the effects get multiplied by the advisor's skill level
# Uses all 'modifiers' possible that are exported as a Modifier.

# Note that ai_will_do calculates a priority.
# An advisor may be chosen over another if its random priority exceeds it. RandomPriority(advisor) := rand[1, 2[ * Priority(advisor).


######################################################
# Administrative Advisors
######################################################

######################################################
philosopher = {
	monarch_power = ADM
	
	# Bonus
	prestige = 1

	skill_scaled_modifier = { meritocracy = 0.25 }

	chance = {
		factor = 1
	}
	
	ai_will_do = {
		factor = 1
	}
}

######################################################
natural_scientist = {
	monarch_power = ADM
	
	# Bonus
	production_efficiency = 0.10

	skill_scaled_modifier = { meritocracy = 0.25 }	

	chance = {
		factor = 1
	}
	
	ai_will_do = {
		factor = 1.2
	}
}

######################################################
artist = {
	monarch_power = ADM
	
	# Bonus
	stability_cost_modifier = -0.10

	skill_scaled_modifier = { meritocracy = 0.25 }	

	chance = {
		factor = 1
	}
	
	ai_will_do = {
		factor = 1
		modifier = {
			factor = 1.2
			NOT = { stability = 1 }
		}
		modifier = {
			factor = 1.2
			NOT = { stability = 0 }
		}
	}
}

######################################################
treasurer = {
	monarch_power = ADM
	
	# Bonus
	global_tax_modifier = 0.1
	
	skill_scaled_modifier = { meritocracy = 0.25 }	

	chance = {
		factor = 1
	}
	
	ai_will_do = {
		factor = 1.5
	}
}

######################################################
theologian = {
	monarch_power = ADM
	
	# Bonus
	global_unrest = -2

	skill_scaled_modifier = { meritocracy = 0.25 }

	chance = {
		factor = 1

	}
	
	ai_will_do = {
		factor = 1
		modifier = {
			factor = 1.5
			unrest = -1
		}
		modifier = {
			factor = 1.5
			unrest = 1
		}
	}
}

######################################################
master_of_mint = {
	monarch_power = ADM
	
	# Bonus
	inflation_reduction = 0.10
	
	skill_scaled_modifier = { meritocracy = 0.25 }

	chance = {
		factor = 1
	}
	
	ai_will_do = {
		factor = 1.2
		modifier = {
			factor = 0.5
			NOT = { inflation = 1 }
		}
	}
}

######################################################
inquisitor = {
	monarch_power = ADM
	allow_only_owner_religion = yes
	
	# Bonus
	global_missionary_strength = 0.02
	
	skill_scaled_modifier = { meritocracy = 0.25 }

	chance = {
		factor = 1
		modifier = {
			factor = 0.1
			has_owner_religion = no
		}
	}
	
	ai_will_do = {
		factor = 1.2
		modifier = {
			factor = 0.5
			religious_unity = 0.95
		}
		modifier = {
			factor = 1.5
			NOT = { religious_unity = 0.8 }
		}
	}
}


######################################################
# Diplomatic Advisors
######################################################

######################################################
statesman = {
	monarch_power = DIP
	
	# Bonus
	diplomatic_reputation = 1
	
	skill_scaled_modifier = { meritocracy = 0.25 }

	chance = {
		factor = 1
	}
	
	ai_will_do = {
		factor = 1
	}
}

######################################################
naval_reformer = {
	monarch_power = DIP
	
	# Bonus
	
	naval_morale = 0.1 
	
	skill_scaled_modifier = { meritocracy = 0.25 }

	chance = {
		factor = 1
		modifier = {
			factor = 0
			has_port = no
		}
		modifier = {
			factor = 0
			owner = { primitives = yes }
		}
	}
	
	ai_will_do = {
		factor = 1
	}
}

######################################################
trader = {
	monarch_power = DIP
	
	# Bonus
	trade_efficiency = 0.10
	
	skill_scaled_modifier = { meritocracy = 0.25 }

	chance = {
		factor = 1
	}
	
	ai_will_do = {
		factor = 1
		modifier = {
			factor = 1.5
			has_idea_group = trade_ideas
		}
	}
}

######################################################
spymaster = {
	monarch_power = DIP
	
	# Bonus
	spy_offence = 0.25
	
	skill_scaled_modifier = { meritocracy = 0.25 }

	chance = {
		factor = 1
	}
	
	ai_will_do = {
		factor = 0.8
	}
}

######################################################
colonial_governor = {
	monarch_power = DIP
	
	# Bonus
	global_tariffs = 0.10
	
	skill_scaled_modifier = { meritocracy = 0.25 }

	chance = {
		factor = 1
		modifier = {
			factor = 0
			owner = { NOT = { num_of_colonists = 1 } }
		}
		modifier = {
			factor = 0
			owner = { is_colonial_nation = yes }
		}
		#Anbennar, you need a CN to get these. 
		modifier = {
			factor = 0
			owner = { NOT = { colony = 1 } }
		}
	}
	
	ai_will_do = {
		factor = 1
	}
}

######################################################
diplomat = {
	monarch_power = DIP
	
	# Bonus
	improve_relation_modifier = 0.2

	skill_scaled_modifier = { meritocracy = 0.25 }	

	chance = {
		factor = 1
	}
	
	ai_will_do = {
		factor = 1
	}
}

######################################################
navigator = {
	monarch_power = DIP
	
	# Bonus
	range = 0.20
	
	skill_scaled_modifier = { meritocracy = 0.25 }

	chance = {
		factor = 1
		modifier = {
			factor = 0
			owner = { NOT = { num_of_colonists = 1 } }
		}
		#Anbennar, no ports in Serpentine/Escann!
		modifier = {
			factor = 0
			owner = { NOT = { num_of_ports = 1 } }
		}
	}
	
	ai_will_do = {
		factor = 1.2
	}
}


######################################################
# Military Advisors
######################################################

######################################################
army_reformer = {
	monarch_power = MIL
	
	# Bonus
	land_morale = 0.10

	skill_scaled_modifier = { meritocracy = 0.25 }	

	chance = {
		factor = 1
	}
	
	ai_will_do = {
		factor = 1.8
	}
}

######################################################
army_organiser = {
	monarch_power = MIL
	
	# Bonus
	land_forcelimit_modifier = 0.10
	
	skill_scaled_modifier = { meritocracy = 0.25 }

	chance = {
		factor = 1
	}
	
	ai_will_do = {
		factor = 1.3
	}
}

######################################################
commandant = {
	monarch_power = MIL
	
	# Bonus
	discipline = 0.05
	
	skill_scaled_modifier = { meritocracy = 0.25 }

	chance = {
		factor = 1
	}
	
	ai_will_do = {
		factor = 1.8
	}
}

######################################################
quartermaster = {
	monarch_power = MIL
	
	# Bonus
	reinforce_speed = 0.33

	skill_scaled_modifier = { meritocracy = 0.25 }

	chance = {
		factor = 1
	}
	
	ai_will_do = {
		factor = 1
		modifier = {
			factor = 1.4
			is_at_war = yes
		}
	}
}

######################################################
recruitmaster = {
	monarch_power = MIL
	
	# Bonus
	global_manpower_modifier = 0.10
	
	skill_scaled_modifier = { meritocracy = 0.25 }

	chance = {
		factor = 1
	}
	
	ai_will_do = {
		factor = 1.1
		modifier = {
			factor = 1.5
			is_at_war = no
		}
	}
}

######################################################
fortification_expert = {
	monarch_power = MIL
	
	# Bonus
	defensiveness = 0.2
	
	skill_scaled_modifier = { meritocracy = 0.25 }

	chance = {
		factor = 1
		
	}
	
	ai_will_do = {
		factor = 1
	}
}

######################################################
grand_captain = {
	monarch_power = MIL
	
	# Bonus
	land_maintenance_modifier = -0.10

	skill_scaled_modifier = { meritocracy = 0.25 }

	chance = {
		factor = 1
	}
	
	ai_will_do = {
		factor = 1.1
		modifier = {
			factor = 1.5
			is_at_war = no
		}
	}
}

#Anbennar
######################################################
court_mage = {
	monarch_power = ADM
	
	# Bonus
	all_power_cost = -0.05

	skill_scaled_modifier = { meritocracy = 0.33 }

	chance = {
		factor = 1
		modifier = {
			factor = 0
			owner = {
				NOT = { has_estate = estate_mages }
				NOT = { has_estate = estate_acolytes }
			}
		}
	}
	
	ai_will_do = {
		factor = 1
	}
}

war_master = {
	monarch_power = MIL
	
	# Bonus
	discipline = 0.05
	siege_ability = 0.1
	
	chance = {
		factor = 0
	}
	
	ai_will_do = {
		factor = 5
	}
}

runic_priest = {
	monarch_power = DIP
	
	# Bonus
	tolerance_own = 3
	caravan_power = 0.2
	
	chance = {
		factor = 0
	}
	
	ai_will_do = {
		factor = 5
	}
}

rune_scribe = {
	monarch_power = ADM
	
	# Bonus
	all_power_cost = -0.05
	
	chance = {
		factor = 0
	}
	
	ai_will_do = {
		factor = 5
	}
}

castonath_master_architect = {
	monarch_power = ADM
	
	build_cost = -0.2
	skill_scaled_modifier = { development_cost = -0.05 }
	
	chance = {
		factor = 0
	}
	
	ai_will_do = {
		factor = 5
	}
}

feiten_airfleet_admiral = {
	monarch_power = DIP
	
	chance = {
		factor = 1
		modifier = {
			factor = 0
			owner = { NOT = { has_country_flag = feiten_airfleet_captain_unlocked } }
		}
	}
	
	ai_will_do = {
		factor = 5
	}
}